%YAML 1.1
%TAG !u! tag:unity3d.com,2011:
--- !u!1001 &2011549090510566487
PrefabInstance:
  m_ObjectHideFlags: 0
  serializedVersion: 2
  m_Modification:
    m_TransformParent: {fileID: 0}
    m_Modifications:
    - target: {fileID: 9014384876447597039, guid: 43d31f673745a4045adcd0a211dfbc48,
        type: 3}
      propertyPath: m_Name
      value: PlayerBlue
      objectReference: {fileID: 0}
    - target: {fileID: 5423141611410748412, guid: 43d31f673745a4045adcd0a211dfbc48,
        type: 3}
      propertyPath: m_LocalPosition.x
      value: -7
      objectReference: {fileID: 0}
    - target: {fileID: 5423141611410748412, guid: 43d31f673745a4045adcd0a211dfbc48,
        type: 3}
      propertyPath: m_LocalPosition.y
      value: 0.492
      objectReference: {fileID: 0}
    - target: {fileID: 5423141611410748412, guid: 43d31f673745a4045adcd0a211dfbc48,
        type: 3}
      propertyPath: m_LocalPosition.z
      value: 0
      objectReference: {fileID: 0}
    - target: {fileID: 5423141611410748412, guid: 43d31f673745a4045adcd0a211dfbc48,
        type: 3}
      propertyPath: m_LocalRotation.x
      value: 0
      objectReference: {fileID: 0}
    - target: {fileID: 5423141611410748412, guid: 43d31f673745a4045adcd0a211dfbc48,
        type: 3}
      propertyPath: m_LocalRotation.y
      value: 0
      objectReference: {fileID: 0}
    - target: {fileID: 5423141611410748412, guid: 43d31f673745a4045adcd0a211dfbc48,
        type: 3}
      propertyPath: m_LocalRotation.z
      value: 0
      objectReference: {fileID: 0}
    - target: {fileID: 5423141611410748412, guid: 43d31f673745a4045adcd0a211dfbc48,
        type: 3}
      propertyPath: m_LocalRotation.w
      value: 1
      objectReference: {fileID: 0}
    - target: {fileID: 5423141611410748412, guid: 43d31f673745a4045adcd0a211dfbc48,
        type: 3}
      propertyPath: m_RootOrder
      value: 0
      objectReference: {fileID: 0}
    - target: {fileID: 5423141611410748412, guid: 43d31f673745a4045adcd0a211dfbc48,
        type: 3}
      propertyPath: m_LocalEulerAnglesHint.x
      value: 0
      objectReference: {fileID: 0}
    - target: {fileID: 5423141611410748412, guid: 43d31f673745a4045adcd0a211dfbc48,
        type: 3}
      propertyPath: m_LocalEulerAnglesHint.y
      value: 0
      objectReference: {fileID: 0}
    - target: {fileID: 5423141611410748412, guid: 43d31f673745a4045adcd0a211dfbc48,
        type: 3}
      propertyPath: m_LocalEulerAnglesHint.z
      value: 0
      objectReference: {fileID: 0}
    - target: {fileID: 9014384876447597036, guid: 43d31f673745a4045adcd0a211dfbc48,
        type: 3}
      propertyPath: bulletMaterial
      value: 
      objectReference: {fileID: 2100000, guid: 9346f68df6b5d674d91a9d682d9d6923, type: 2}
    - target: {fileID: 9014384876447597036, guid: 43d31f673745a4045adcd0a211dfbc48,
        type: 3}
      propertyPath: m_bulletMaterial
      value: 
      objectReference: {fileID: 2100000, guid: 9346f68df6b5d674d91a9d682d9d6923, type: 2}
    - target: {fileID: 1197176620818759534, guid: 43d31f673745a4045adcd0a211dfbc48,
        type: 3}
      propertyPath: m_Materials.Array.data[0]
      value: 
      objectReference: {fileID: 2100000, guid: 224957f135c131345a52b98388a3d0a9, type: 2}
    - target: {fileID: 7635481157770755745, guid: 43d31f673745a4045adcd0a211dfbc48,
        type: 3}
      propertyPath: m_Materials.Array.data[0]
      value: 
      objectReference: {fileID: 2100000, guid: 224957f135c131345a52b98388a3d0a9, type: 2}
    - target: {fileID: 903166213250994029, guid: 43d31f673745a4045adcd0a211dfbc48,
        type: 3}
      propertyPath: m_Materials.Array.data[0]
      value: 
      objectReference: {fileID: 2100000, guid: 224957f135c131345a52b98388a3d0a9, type: 2}
    - target: {fileID: 3051961817938766349, guid: 43d31f673745a4045adcd0a211dfbc48,
        type: 3}
      propertyPath: m_Materials.Array.data[0]
      value: 
      objectReference: {fileID: 2100000, guid: 224957f135c131345a52b98388a3d0a9, type: 2}
    - target: {fileID: 3431073609875056318, guid: 43d31f673745a4045adcd0a211dfbc48,
        type: 3}
      propertyPath: m_Materials.Array.data[0]
      value: 
      objectReference: {fileID: 2100000, guid: 224957f135c131345a52b98388a3d0a9, type: 2}
    - target: {fileID: 3805126712637873234, guid: 43d31f673745a4045adcd0a211dfbc48,
        type: 3}
      propertyPath: m_Materials.Array.data[0]
      value: 
      objectReference: {fileID: 2100000, guid: 224957f135c131345a52b98388a3d0a9, type: 2}
    - target: {fileID: 9014384876447597034, guid: 43d31f673745a4045adcd0a211dfbc48,
        type: 3}
      propertyPath: healthbar
      value: 
      objectReference: {fileID: 0}
    - target: {fileID: 9014384876447597034, guid: 43d31f673745a4045adcd0a211dfbc48,
        type: 3}
      propertyPath: m_healthbar
      value: 
      objectReference: {fileID: 0}
    - target: {fileID: 7335583518398026908, guid: 43d31f673745a4045adcd0a211dfbc48,
        type: 3}
      propertyPath: m_Materials.Array.data[0]
      value: 
      objectReference: {fileID: 2100000, guid: 9335c716c59b46e48b9b6072b7bab4be, type: 2}
    - target: {fileID: 7003050624280701173, guid: 43d31f673745a4045adcd0a211dfbc48,
        type: 3}
      propertyPath: m_Materials.Array.data[0]
      value: 
      objectReference: {fileID: 2100000, guid: 8e4580381aeeb5b4583a406f917c839b, type: 2}
    - target: {fileID: 4938616238518895255, guid: 43d31f673745a4045adcd0a211dfbc48,
        type: 3}
      propertyPath: m_Materials.Array.data[0]
      value: 
      objectReference: {fileID: 2100000, guid: 8e4580381aeeb5b4583a406f917c839b, type: 2}
    m_RemovedComponents:
    - {fileID: 2722669317607022214, guid: 43d31f673745a4045adcd0a211dfbc48, type: 3}
  m_SourcePrefab: {fileID: 100100000, guid: 43d31f673745a4045adcd0a211dfbc48, type: 3}
